Financial Contributions to Presidential Campaigns in Massachusetts
…
## 3216               Johnson, Gary
## 5487       Webb, James Henry Jr.
## 8623                  Paul, Rand
## 9032              Fiorina, Carly
## 9133        Santorum, Richard J.
## 34369             Huckabee, Mike
## 36388         Graham, Lindsey O.
## 37319          Pataki, George E.
## 43905       Gilmore, James S III
## 47554        Carson, Benjamin S.
## 57970           Lessig, Lawrence
## 110978    Perry, James R. (Rick)
## 221952             Jindal, Bobby

## # A tibble: 268,895 x 6
##    name  proportion_male proportion_female gender year_min year_max
##    <chr>           <dbl>             <dbl> <chr>     <dbl>    <dbl>
##  1 AARON           0.991            0.0094 male       1920     1997
##  2 AARON           0.991            0.0094 male       1920     1997
##  3 AARON           0.991            0.0094 male       1920     1997
##  4 AARON           0.991            0.0094 male       1920     1997
##  5 AARON           0.991            0.0094 male       1920     1997
##  6 AARON           0.991            0.0094 male       1920     1997
##  7 AARON           0.991            0.0094 male       1920     1997
##  8 AARON           0.991            0.0094 male       1920     1997
##  9 AARON           0.991            0.0094 male       1920     1997
## 10 AARON           0.991            0.0094 male       1920     1997
## # ... with 268,885 more rows
…
Now lets check within parties.

## # A tibble: 22 x 5
## # Groups:   party [2]
##    party      cand_nm                sum_can mean_can     n
##    <chr>      <chr>                    <dbl>    <dbl> <int>
##  1 republican Jindal, Bobby             250      250      1
##  2 republican Perry, James R. (Rick)    750      375      2
##  3 republican Gilmore, James S III     2700     2700      1
##  4 republican Pataki, George E.        3950     1317.     3
##  5 republican Santorum, Richard J.     7620.     508.    15
##  6 republican Huckabee, Mike          11048      121.    91
##  7 democrat   Webb, James Henry Jr.   12100.     712.    17
##  8 republican Walker, Scott           46345      946.    49
##  9 republican Paul, Rand              75241.     154.   490
## 10 democrat   Lessig, Lawrence        88484.     681.   130
## # ... with 12 more rows
…
